{
  "packageRules": [
    {
      "matchPaths": ["containers/9.4"],
      "packageRules": [
        {
          "matchPackagePatterns": ["glpi-project/glpi"],
          "allowedVersions": "=9.4"
        },
        {
          "matchPackagePatterns": ["^php$"],
          "allowedVersions": "=7.4"
        }
      ]
    }
  ]
}
